,False Positive or False Negative?,Manual Label,My Label,url
0,Negative,fraud-credentials,other,https://scrape.pastebin.com/CAuywisJ
0,Positive,other,fraud-credentials,https://scrape.pastebin.com/ykAFWYHd
0,Negative,fraud-credentials,other,https://scrape.pastebin.com/sgdtwCwB
0,Positive,other,fraud-credentials,https://scrape.pastebin.com/XAF54JwA
0,Positive,other,fraud-credentials,https://xakfor.net/forum/%D0%9A%D0%BE%D1%80%D0%B7%D0%B8%D0%BD%D0%B0-%D1%83%D1%81%D1%82%D0%B0%D1%80%D0%B5%D0%B2%D1%88%D0%B5%D0%B5-%D0%BD%D0%B5%D0%B0%D0%BA%D1%82%D1%83%D0%B0%D0%BB%D1%8C%D0%BD%D0%BE%D0%B5-%D0%B1%D0%B5%D1%81%D1%81%D0%BC%D1%8B%D1%81%D0%BB%D0%B5%D0%BD%D0%BD%D0%BE%D0%B5.26/
0,Negative,fraud-credentials,other,https://scrape.pastebin.com/yQ8wjeDp
0,Negative,fraud-credentials,other,https://scrape.pastebin.com/43AiRLv9
0,Negative,fraud-credentials,other,https://scrape.pastebin.com/ivgcKY9J
0,Negative,fraud-credentials,other,https://scrape.pastebin.com/s5LtsRRR
0,Negative,fraud-credentials,other,http://web.archive.org/web/20181229114855/http:/siph0n.net/exploits.php?id=7858
0,Negative,fraud-credentials,other,https://scrape.pastebin.com/D6VQTjuW
0,Positive,other,fraud-credentials,https://scrape.pastebin.com/Wag5G31R
0,Negative,fraud-credentials,other,https://scrape.pastebin.com/QtL3iRi7
0,Negative,fraud-credentials,other,https://scrape.pastebin.com/p1PG8Z5c
0,Negative,fraud-credentials,other,https://scrape.pastebin.com/vpvaR4cM
0,Positive,other,fraud-credentials,http://offensivecommunity.net/showthread.php?tid=68312&action=lastpost#content
0,Positive,other,fraud-credentials,https://scrape.pastebin.com/dvgNFJd1
0,Positive,other,fraud-credentials,https://scrape.pastebin.com/91avVRsA
0,Negative,fraud-credentials,other,https://scrape.pastebin.com/abq3aDrJ
0,Negative,fraud-credentials,other,https://scrape.pastebin.com/8S8vjvuJ
0,Negative,fraud-credentials,other,https://scrape.pastebin.com/neL1CMSb
0,Negative,fraud-credentials,other,https://scrape.pastebin.com/ue2vhka9
0,Negative,fraud-credentials,other,https://scrape.pastebin.com/Fshf3Z65
